Time    Compile Level       Method
Elapsed ID
     26    1       3       java.lang.StringLatin1::hashCode (42 bytes)
     27    4     n 0       jdk.internal.misc.Unsafe::getObjectVolatile (native)   
     28    7       3       java.lang.Math::floorMod (10 bytes)
     28    5       4       java.lang.Object::<init> (1 bytes)
     28   12       3       java.util.ImmutableCollections$SetN::probe (56 bytes)
     28   11       4       java.lang.String::coder (15 bytes)
     28   10       4       java.lang.String::hashCode (49 bytes)
     28   15       3       java.lang.StringLatin1::equals (36 bytes)
     28   13       3       java.util.ImmutableCollections$SetN::hashCode (46 bytes)
     28    8       2       java.lang.Math::floorDiv (22 bytes)
     28   14       2       java.lang.String::equals (65 bytes)
     29    9       3       java.util.Objects::requireNonNull (14 bytes)
     29   16       3       java.lang.module.ModuleDescriptor$Exports::<init> (20 bytes)
     29   18       3       java.util.Objects::equals (23 bytes)
     29   17       3       java.lang.module.ModuleDescriptor$Exports::hashCode (38 bytes)
     29   20       3       java.util.ImmutableCollections::emptySet (4 bytes)
     29   21       3       java.util.Set::of (4 bytes)
     29   22       3       jdk.internal.module.Builder::newExports (11 bytes)
     29   23       3       java.lang.module.ModuleDescriptor$1::newExports (14 bytes)
     29   24       3       java.util.AbstractCollection::<init> (5 bytes)
     29   25       3       java.util.ImmutableCollections$AbstractImmutableCollection::<init> (5 bytes)
     29   27       3       java.util.ImmutableCollections$AbstractImmutableSet::<init> (5 bytes)
     29   26       3       java.lang.module.ModuleDescriptor$Exports::equals (62 bytes)
     29   28       3       java.util.ImmutableCollections$SetN::<init> (90 bytes)
     30   19       4       java.lang.StringLatin1::hashCode (42 bytes)
     30   29       2       java.util.Set::of (66 bytes)
     30   33       3       java.util.ImmutableCollections$Set12::hashCode (27 bytes)
     30   31       3       jdk.internal.module.Builder::newExports (12 bytes)
     30   38       1       java.lang.module.ModuleDescriptor::name (5 bytes)
     30   39     n 0       java.lang.System::arraycopy (native)   (static)
     30   32       3       java.lang.module.ModuleDescriptor$1::newExports (12 bytes)
     30   34       3       jdk.internal.module.Builder::newRequires (7 bytes)
     30   35       3       jdk.internal.module.Builder::newRequires (51 bytes)
     30   40       2       java.net.URI::hash (33 bytes)
     30   41       2       java.lang.String::charAt (25 bytes)
     31    1       3       java.lang.StringLatin1::hashCode (42 bytes)   made not entrant
     31   42       2       java.lang.StringLatin1::charAt (28 bytes)
     31   30       4       java.util.ImmutableCollections$SetN::probe (56 bytes)
     31   43       3       java.net.URI::toLower (19 bytes)
     31   44       1       java.lang.module.ModuleReference::descriptor (5 bytes)
     31   36       3       java.lang.module.ModuleDescriptor$1::newRequires (12 bytes)
     31   37       3       java.lang.module.ModuleDescriptor$Requires::<init> (25 bytes)
     31   45       3       java.util.HashMap::hash (20 bytes)
     32   12       3       java.util.ImmutableCollections$SetN::probe (56 bytes)   made not entrant
     32    6       4       java.lang.String::isLatin1 (19 bytes)
     32    2       4       java.util.concurrent.ConcurrentHashMap::tabAt (22 bytes)
     32    3       4       jdk.internal.misc.Unsafe::getObjectAcquire (7 bytes)
     32   46       3       java.util.concurrent.ConcurrentHashMap::spread (10 bytes)
     33   47       3       java.lang.String::length (11 bytes)
     33   48   !   3       java.util.concurrent.ConcurrentHashMap::putVal (432 bytes)
     33   52     n 0       jdk.internal.misc.Unsafe::compareAndSetLong (native)   
     33   54     n 0       jdk.internal.misc.Unsafe::compareAndSetObject (native)   
     34   58       4       java.util.Objects::requireNonNull (14 bytes)
     34    9       3       java.util.Objects::requireNonNull (14 bytes)   made not entrant
     34   56       2       java.util.ImmutableCollections$SetN$SetNIterator::next (47 bytes)
     34   62       4       java.util.ImmutableCollections$MapN::get (35 bytes)
     34   57       2       java.util.ImmutableCollections$MapN::probe (60 bytes)
     34   50       2       java.util.ImmutableCollections$SetN$SetNIterator::hasNext (13 bytes)
     34   59       2       java.util.KeyValueHolder::<init> (21 bytes)
     35   49       2       java.util.ImmutableCollections$SetN$SetNIterator::nextIndex (56 bytes)
     35   60       1       java.util.KeyValueHolder::getKey (5 bytes)
     35   51       2       java.util.concurrent.ConcurrentHashMap::addCount (279 bytes)
     35   65     n 0       java.lang.Object::hashCode (native)   
     35   53       2       java.util.concurrent.ConcurrentHashMap$Node::<init> (20 bytes)
     35   61       1       java.util.KeyValueHolder::getValue (5 bytes)
     35   71       3       java.util.HashMap::getNode (148 bytes)
     35   67       3       java.util.HashMap::putVal (300 bytes)
     36   63       2       java.lang.module.ResolvedModule::hashCode (16 bytes)
     36   66       3       java.util.HashMap::put (13 bytes)
     36   68       3       java.util.HashMap$Node::<init> (26 bytes)
     36   69       3       java.util.HashMap::newNode (13 bytes)
     36   70       3       java.util.HashMap::afterNodeInsertion (1 bytes)
     36   55       2       java.util.concurrent.ConcurrentHashMap::putIfAbsent (8 bytes)
     36   72       1       java.lang.module.ResolvedModule::reference (5 bytes)
     36   73       3       java.lang.module.ResolvedModule::name (11 bytes)
     36   74       3       java.lang.CharacterData::of (120 bytes)
     36   81       2       java.lang.StringLatin1::indexOf (61 bytes)
     36   76       3       java.lang.CharacterDataLatin1::getProperties (11 bytes)
     36   77       3       java.util.Optional::ofNullable (15 bytes)
     36   78       3       java.util.Optional::of (9 bytes)
     37   79       3       java.util.Optional::<init> (13 bytes)
     37   75       3       java.util.ImmutableCollections$Set12$1::hasNext (13 bytes)
     37   80       3       java.lang.Math::min (11 bytes)
     37   82       3       java.lang.Character::toLowerCase (6 bytes)
     37   83       3       java.lang.Character::toLowerCase (9 bytes)
     37   84       3       java.lang.CharacterDataLatin1::toLowerCase (39 bytes)
     37   85       3       java.util.HashMap::get (23 bytes)
     38   86       3       java.lang.module.ModuleReference::location (8 bytes)
     38   87       3       java.net.URI::isOpaque (13 bytes)
     38   91       1       java.util.ImmutableCollections$SetN::size (5 bytes)
     38   92       3       java.lang.AbstractStringBuilder::ensureCapacityInternal (39 bytes)
     38  100     n 0       java.lang.Object::getClass (native)   
     38   90       3       java.util.Optional::orElse (16 bytes)
     38   93       2       java.util.ImmutableCollections$Set12::size (13 bytes)
     39  105     n 0       java.lang.Module::addExports0 (native)   (static)
     39   94       3       java.util.ImmutableCollections$Set12$1::next (92 bytes)
     39   95       3       java.lang.AbstractStringBuilder::putStringAt (29 bytes)
     39  109       2       java.lang.module.ModuleDescriptor$Exports::isQualified (18 bytes)
     39  113       2       java.util.AbstractMap::<init> (5 bytes)
     39  102       2       java.util.HashSet::add (20 bytes)
     39  117       2       java.util.HashMap::<init> (11 bytes)
     39  106       2       java.util.AbstractCollection::isEmpty (13 bytes)
     39   96       3       java.lang.AbstractStringBuilder::getCoder (15 bytes)
     39   97       3       java.lang.String::getBytes (44 bytes)
     39  107       1       java.lang.module.ModuleDescriptor$Exports::source (5 bytes)
     39  103       2       java.util.ImmutableCollections$Set12::iterator (9 bytes)
     39  104       2       java.util.ImmutableCollections$Set12$1::<init> (21 bytes)
     39  111       1       java.lang.module.ModuleDescriptor::isAutomatic (5 bytes)
     39  114       3       java.util.Collections$UnmodifiableCollection$1::next (10 bytes)
     40  115       1       java.lang.module.ResolvedModule::configuration (5 bytes)
     40  116       1       java.lang.module.ModuleDescriptor$Exports::targets (5 bytes)
     40  119       2       java.lang.AbstractStringBuilder::isLatin1 (19 bytes)
     40  112       4       java.util.ImmutableCollections$SetN$SetNIterator::next (47 bytes)
     40  120       2       java.util.Map::entry (10 bytes)
     40   62       4       java.util.ImmutableCollections$MapN::get (35 bytes)   made not entrant
     40  125       1       java.lang.module.ModuleDescriptor::isOpen (5 bytes)
     41   56       2       java.util.ImmutableCollections$SetN$SetNIterator::next (47 bytes)   made not entrant
     41  121       4       java.lang.StringLatin1::equals (36 bytes)
     41  126       3       java.util.HashMap$HashIterator::hasNext (13 bytes)
     41  130     n 0       java.lang.Module::addExportsToAllUnnamed0 (native)   (static)
     41  127       2       jdk.internal.module.ModuleBootstrap$2::hasNext (30 bytes)
     41  128       2       jdk.internal.module.ModuleBootstrap$2::next (52 bytes)
     41  129       2       java.util.HashMap::putIfAbsent (13 bytes)
     41  137       2       java.util.ImmutableCollections$MapN::get (35 bytes)
     42  132       3       java.util.Collections::unmodifiableSet (9 bytes)
     42  133       3       java.util.Collections$UnmodifiableSet::<init> (6 bytes)
     42   15       3       java.lang.StringLatin1::equals (36 bytes)   made not entrant
     42  122       4       java.util.HashMap::putVal (300 bytes)
     42  134       3       java.util.Collections$UnmodifiableCollection::<init> (22 bytes)
     42  138       2       java.util.ImmutableCollections$SetN::iterator (9 bytes)
     42  139       2       java.util.ImmutableCollections$SetN$SetNIterator::<init> (40 bytes)
     42  135       1       java.lang.Module::getDescriptor (5 bytes)
     42  140       3       jdk.internal.misc.VM::initLevel (4 bytes)
     42  141       3       java.lang.System::getSecurityManager (4 bytes)
     43  144       2       java.lang.String::indexOf (29 bytes)
     44  143       2       java.lang.String::indexOf (7 bytes)
     44   10       4       java.lang.String::hashCode (49 bytes)   made not entrant
     44  145       2       java.lang.String::hashCode (49 bytes)
     44  146       3       java.util.concurrent.ConcurrentHashMap::get (162 bytes)
     45  147       2       java.lang.StringBuilder::append (8 bytes)
     45  148       2       java.lang.AbstractStringBuilder::append (77 bytes)
     49   67       3       java.util.HashMap::putVal (300 bytes)   made not entrant
     50  131       4       java.util.HashMap::hash (20 bytes)
     50   45       3       java.util.HashMap::hash (20 bytes)   made not entrant
     50  123       4       java.util.HashMap::newNode (13 bytes)
     51   69       3       java.util.HashMap::newNode (13 bytes)   made not entrant
     51  124       4       java.util.HashMap::afterNodeInsertion (1 bytes)
     51   70       3       java.util.HashMap::afterNodeInsertion (1 bytes)   made not entrant
     51  136       4       java.util.HashMap::put (13 bytes)
     52   66       3       java.util.HashMap::put (13 bytes)   made not entrant
     52   88       4       java.util.ImmutableCollections$SetN$SetNIterator::nextIndex (56 bytes)
     52   49       2       java.util.ImmutableCollections$SetN$SetNIterator::nextIndex (56 bytes)   made not entrant
     52  110       4       java.util.ImmutableCollections$SetN$SetNIterator::hasNext (13 bytes)
     52   50       2       java.util.ImmutableCollections$SetN$SetNIterator::hasNext (13 bytes)   made not entrant
     53  142       4       java.lang.String::equals (65 bytes)
     53   14       2       java.lang.String::equals (65 bytes)   made not entrant
     53  108       4       java.util.HashMap::resize (356 bytes)
     65   89       4       java.lang.StringLatin1::canEncode (13 bytes)
     66  118       4       java.util.concurrent.ConcurrentHashMap::casTabAt (21 bytes)
     66   98       4       java.lang.StringBuilder::append (8 bytes)
     67   99       4       java.lang.AbstractStringBuilder::append (45 bytes)
     68  101       4       java.lang.String::<init> (15 bytes)
     69   64       4       jdk.internal.module.ModuleReferenceImpl::hashCode (56 bytes)
    333  152       3       java.lang.StringLatin1::inflate (34 bytes)
    333  149       4       java.lang.String::length (11 bytes)
    333  154   !   2       java.io.BufferedWriter::write (117 bytes)
    333   47       3       java.lang.String::length (11 bytes)   made not entrant
    333  159       4       java.lang.String::valueOf (14 bytes)
    333  150       2       java.lang.String::checkBoundsBeginEnd (60 bytes)
    333  160       4       code.Logger::print (7 bytes)
    333  151       2       java.lang.String::checkBoundsOffCount (61 bytes)
    334  157       2       java.lang.String::getChars (54 bytes)
    334  153       2       java.io.PrintWriter::ensureOpen (18 bytes)
    334  158       2       java.lang.StringLatin1::getChars (12 bytes)
    334  155       2       java.io.BufferedWriter::ensureOpen (18 bytes)
    334  166       2       java.io.PrintWriter::println (5 bytes)
    334  167   !   2       java.io.PrintWriter::newLine (65 bytes)
    334  168       2       java.lang.System::lineSeparator (4 bytes)
    334  169       2       java.io.Writer::write (11 bytes)
    334  156       2       java.io.BufferedWriter::min (9 bytes)
    336  179 %     3       sun.nio.cs.UTF_8$Encoder::encodeArrayLoop @ 73 (489 bytes)
    338  180       3       sun.nio.cs.UTF_8$Encoder::encodeArrayLoop (489 bytes)
    339  170       4       java.lang.StringLatin1::inflate (34 bytes)
    340  152       3       java.lang.StringLatin1::inflate (34 bytes)   made not entrant
    340  171   !   4       java.io.BufferedWriter::write (117 bytes)
    343  154   !   2       java.io.BufferedWriter::write (117 bytes)   made not entrant
    343  172       4       java.lang.String::checkBoundsBeginEnd (60 bytes)
    343  150       2       java.lang.String::checkBoundsBeginEnd (60 bytes)   made not entrant
    343  173       4       java.lang.String::checkBoundsOffCount (61 bytes)
    343  151       2       java.lang.String::checkBoundsOffCount (61 bytes)   made not entrant
    343  174       4       java.lang.String::getChars (54 bytes)
    344  157       2       java.lang.String::getChars (54 bytes)   made not entrant
    344  175       4       java.io.PrintWriter::ensureOpen (18 bytes)
    344  153       2       java.io.PrintWriter::ensureOpen (18 bytes)   made not entrant
    344  176       4       java.io.PrintWriter::println (5 bytes)
    346  166       2       java.io.PrintWriter::println (5 bytes)   made not entrant
    346  177       4       java.io.Writer::write (11 bytes)
    348  169       2       java.io.Writer::write (11 bytes)   made not entrant
    348  178   !   4       java.io.PrintWriter::newLine (65 bytes)
    351  167   !   2       java.io.PrintWriter::newLine (65 bytes)   made not entrant
    351  161   !   4       java.io.PrintWriter::println (27 bytes)
    357  162       4       java.io.PrintWriter::print (9 bytes)
    360  164       4       java.io.PrintWriter::write (11 bytes)
    363  165   !   4       java.io.PrintWriter::write (58 bytes)
    366  163       4       java.lang.String::toString (2 bytes)
   1343  181       2       code.Logger::write (7 bytes)
   1344  161   !   4       java.io.PrintWriter::println (27 bytes)   made not entrant
   1344  182 %     4       sun.nio.cs.UTF_8$Encoder::encodeArrayLoop @ 73 (489 bytes)
   1346  165   !   4       java.io.PrintWriter::write (58 bytes)   made not entrant
   1347  171   !   4       java.io.BufferedWriter::write (117 bytes)   made not entrant
   1348  185   !   3       java.io.BufferedWriter::write (117 bytes)
   1361  179 %     3       sun.nio.cs.UTF_8$Encoder::encodeArrayLoop @ 73 (489 bytes)   made not entrant
   1361  187   !   4       java.io.BufferedWriter::write (117 bytes)
   1362  178   !   4       java.io.PrintWriter::newLine (65 bytes)   made not entrant
   1362  189   !   3       java.io.PrintWriter::newLine (65 bytes)
   1368  185   !   3       java.io.BufferedWriter::write (117 bytes)   made not entrant
   1368  184   !   4       java.io.PrintWriter::write (58 bytes)
   1376  177       4       java.io.Writer::write (11 bytes)   made not entrant
   1376  191       3       java.io.Writer::write (11 bytes)
   1376  190   !   4       java.io.PrintWriter::newLine (65 bytes)
   1383  189   !   3       java.io.PrintWriter::newLine (65 bytes)   made not entrant
   1383  192       4       java.io.Writer::write (11 bytes)
   1384  194       3       java.nio.charset.CoderResult::isUnderflow (13 bytes)
   1384  195       3       java.nio.charset.CoderResult::isOverflow (14 bytes)
   1387  191       3       java.io.Writer::write (11 bytes)   made not entrant
   1387  183   !   4       java.io.PrintWriter::println (27 bytes)
   1398  199       3       java.nio.Buffer::hasRemaining (17 bytes)
   1398  200       3       java.nio.CharBuffer::hasArray (20 bytes)
   1398  201       3       java.nio.ByteBuffer::hasArray (20 bytes)
   1398  202   !   3       java.nio.charset.CharsetEncoder::encode (285 bytes)
   1399  188       4       sun.nio.cs.UTF_8$Encoder::encodeArrayLoop (489 bytes)
   1399  203       3       sun.nio.cs.UTF_8$Encoder::encodeLoop (28 bytes)
   1404  180       3       sun.nio.cs.UTF_8$Encoder::encodeArrayLoop (489 bytes)   made not entrant
   1404  186       4       code.Logger::write (7 bytes)
   1404  181       2       code.Logger::write (7 bytes)   made not entrant
   1404  193       4       java.nio.Buffer::position (52 bytes)
   1405  205       1       java.nio.Buffer::limit (5 bytes)
   1405  206       1       java.nio.Buffer::position (5 bytes)
   1405  198       4       java.nio.ByteBuffer::arrayOffset (35 bytes)
   1405  204       4       java.nio.CharBuffer::arrayOffset (35 bytes)
   1405  196       4       java.nio.CharBuffer::position (6 bytes)
   1405  197       4       java.nio.CharBuffer::position (8 bytes)
   1406  207       4       java.nio.ByteBuffer::position (6 bytes)
   1406  208       4       java.nio.ByteBuffer::position (8 bytes)
   1406  209 %     3       code.Logger::main @ 66 (117 bytes)
   1408  210       3       code.Logger::main (117 bytes)
   1411  211       4       java.nio.ByteBuffer::array (35 bytes)
   1422  212       3       java.nio.Buffer::<init> (99 bytes)
   1423  213       3       java.nio.Buffer::limit (65 bytes)
   1425  214       3       java.nio.CharBuffer::<init> (22 bytes)
   1425  215       3       java.nio.CharBuffer::limit (6 bytes)
   1425  216       3       java.nio.CharBuffer::limit (8 bytes)
   1425  217   !   4       java.io.BufferedWriter::flushBuffer (53 bytes)
   1425  218       3       java.io.OutputStreamWriter::write (11 bytes)
   1425  224       3       sun.nio.cs.StreamEncoder::implWrite (137 bytes)
   1425  219   !   3       sun.nio.cs.StreamEncoder::write (78 bytes)
   1426  220       3       sun.nio.cs.StreamEncoder::ensureOpen (18 bytes)
   1426  221       3       sun.nio.cs.StreamEncoder::implWrite (15 bytes)
   1426  222   !   3       java.nio.CharBuffer::wrap (20 bytes)
   1426  223       3       java.nio.HeapCharBuffer::<init> (21 bytes)
   1426  225       3       java.nio.Buffer::flip (20 bytes)
   1426  226       3       java.nio.Buffer::clear (20 bytes)
   1426  227       3       java.nio.ByteBuffer::flip (7 bytes)
   1426  228       3       java.nio.ByteBuffer::clear (7 bytes)
   1426  229       3       java.io.FileOutputStream::write (20 bytes)
   1426  230       3       java.io.FileDescriptor$1::getAppend (5 bytes)
   1428  231 %     4       code.Logger::main @ 66 (117 bytes)
   1429  209 %     3       code.Logger::main @ 66 (117 bytes)   made not entrant
   1429  232       4       java.nio.CharBuffer::array (35 bytes)
   1429  234       4       sun.nio.cs.UTF_8::updatePositions (23 bytes)
   1430  233       4       sun.nio.cs.UTF_8$Encoder::overflow (11 bytes)
   1458  235       4       sun.nio.cs.StreamEncoder::writeBytes (132 bytes)
   1458  236     n 0       java.io.FileOutputStream::writeBytes (native)   
   1523  238       4       sun.nio.cs.UTF_8$Encoder::encodeLoop (28 bytes)
   1524  203       3       sun.nio.cs.UTF_8$Encoder::encodeLoop (28 bytes)   made not entrant
   1524  237   !   4       java.nio.charset.CharsetEncoder::encode (285 bytes)
   1525  202   !   3       java.nio.charset.CharsetEncoder::encode (285 bytes)   made not entrant
   1643  240       4       java.nio.Buffer::limit (65 bytes)
   1643  213       3       java.nio.Buffer::limit (65 bytes)   made not entrant
   1643  239       4       java.nio.Buffer::<init> (99 bytes)
   1644  212       3       java.nio.Buffer::<init> (99 bytes)   made not entrant
   1644  241       4       java.nio.CharBuffer::limit (6 bytes)
   1644  215       3       java.nio.CharBuffer::limit (6 bytes)   made not entrant
   1644  243       4       sun.nio.cs.StreamEncoder::implWrite (137 bytes)
   1647  224       3       sun.nio.cs.StreamEncoder::implWrite (137 bytes)   made not entrant
   1647  242   !   4       sun.nio.cs.StreamEncoder::write (78 bytes)
   1653  219   !   3       sun.nio.cs.StreamEncoder::write (78 bytes)   made not entrant
   4347  231 %     4       code.Logger::main @ 66 (117 bytes)   made not entrant
   5353  160       4       code.Logger::print (7 bytes)   made not entrant
   5353  244       4       code.Logger::print (7 bytes)
   5354  245 %     3       code.Logger::main @ 92 (117 bytes)
   5362  237   !   4       java.nio.charset.CharsetEncoder::encode (285 bytes)   made not entrant